<?xml version="1.0" encoding="UTF-8" standalone="no"?>
<svg viewBox="0 0 50 50"
 xmlns="http://www.w3.org/2000/svg" xmlns:xlink="http://www.w3.org/1999/xlink"  version="1.2" baseProfile="tiny">
<title>Qt SVG Document</title>
<desc>Generated with Qt</desc>
<defs>
</defs>
<g fill="none" stroke="black" stroke-width="1" fill-rule="evenodd" stroke-linecap="square" stroke-linejoin="bevel" >

<g fill="#707d8a" fill-opacity="1" stroke="none" transform="matrix(2.5,0,0,2.5,2.5,2.5)"
font-family="Hack" font-size="8" font-weight="400" font-style="normal" 
>
<circle cx="9" cy="9" r="9"/>
</g>

<g fill="none" stroke="#eff0f1" stroke-opacity="1" stroke-width="1.01" stroke-linecap="round" stroke-linejoin="round" transform="matrix(2.5,0,0,2.5,2.5,2.5)"
font-family="Hack" font-size="8" font-weight="400" font-style="normal" 
>
<path vector-effect="none" fill-rule="evenodd" d="M4,9 L9,4 L14,9 L9,14 L4,9"/>
</g>

<g fill="none" stroke="#000000" stroke-opacity="1" stroke-width="1" stroke-linecap="square" stroke-linejoin="bevel" transform="matrix(1,0,0,1,0,0)"
font-family="Hack" font-size="8" font-weight="400" font-style="normal" 
>
</g>
</g>
</svg>
